{
    "log": {
        "loglevel": "debug"
    },
    "inbounds": [
        {
            "port": 443,
            "listen": "0.0.0.0",
            "protocol": "vless",
            "settings": {
                "clients": [
                    {
                        "id": "47e5bf8d-f2f0-418f-8a6b-121b79771366", // 填写你的 UUID
                        "level": 0,
                        "email": "love@v2fly.org"
                    }
                ],
                "decryption": "none"
            },
            "streamSettings": {
                "network": "ws",
                "security": "tls",
                "wsSettings": {
                    "path": "/NDDLLmA7QwgzFK" // 必须换成自定义的 PATH，需要和上面的一致
                },
                "tlsSettings": {
                    "alpn": [
                        "http/1.1"
                    ],
                    "certificates": [
                        {
                            "certificateFile": "/etc/v2ray/fullchain.pem", // 换成你的证书，绝对路径
                            "keyFile": "/etc/v2ray/private.key" // 换成你的私钥，绝对路径
                        }
                    ]
                }
            }
        }
    ],
    "outbounds": [
        {
            "protocol": "freedom", // 主传出协议
            "settings": {}
        }
    ]
}